centile;nombre de grilles;formes par grilles;lemmes par grille;lemmes distincts;combos par grille;Taille moyenne combo
0;2000;268;208;23857;83;2.73
10;2000;262;204;23429;81;2.73
100;2000;150;98;242;51;3.15
20;2000;269;208;23583;84;2.75
30;2000;266;207;23407;83;2.73
40;2000;266;206;23137;84;2.73
50;2000;268;208;23503;84;2.74
60;2000;270;208;23361;85;2.74
70;2000;277;214;23379;86;2.75
80;2000;292;220;22679;92;2.77
83;2000;296;221;22031;95;2.78
85;2000;298;222;21485;95;2.79
88;2000;306;222;18001;99;2.82
90;2000;315;224;17335;102;2.85
93;2000;316;219;12405;103;2.9
95;2000;326;216;6766;108;2.93
